%YAML 1.1
%TAG !u! tag:unity3d.com,2011:
--- !u!1045 &1
EditorBuildSettings:
  m_ObjectHideFlags: 0
  serializedVersion: 2
  m_Scenes:
  - enabled: 1
    path: Assets/1_FirstScene.unity
    guid: 826d182cc46e70142808aced21adb364
  - enabled: 1
    path: Assets/2_UniWebView.unity
    guid: 1a488a423291d3b4b9fade8318159554
  m_configObjects: {}
